<svg xmlns="http://www.w3.org/2000/svg" xmlns:xlink="http://www.w3.org/1999/xlink" xml:space="preserve" width="180mm" height="40mm" version="1.0" style="shape-rendering:geometricPrecision; text-rendering:geometricPrecision; image-rendering:optimizeQuality; fill-rule:evenodd; clip-rule:evenodd" viewBox="0 0 18000 4000">
    <style type="text/css">
        g {
            fill: white;
        }
        
        #text {
            fill: ligthGrey;
            animation: text 1s ease-in alternate 4;
            opacity: 1;
        }

        @keyframes text {
            to {
                opacity: .2;
            }    
        }
    </style>
    <g id="Capa_x0020_1">
        <metadata id="CorelCorpID_0Corel-Layer"/>
        <g id="moonblock">
            <path class="fil0" d="M1088 2597c205,0 172,11 177,-31l47 -350c3,-29 5,-50 9,-79l104 -791 233 465c6,13 11,24 18,37l59 122c27,53 51,102 78,155 13,28 25,50 38,78l117 237c27,53 51,106 79,157l48 0 115 -230c7,-14 11,-23 19,-37 7,-15 11,-28 18,-42 26,-52 51,-102 78,-155l152 -309c14,-27 26,-51 39,-77 6,-13 12,-24 19,-38l174 -351c0,20 8,58 11,77 42,280 77,573 120,850l33 232c3,26 7,57 12,80l169 0 -125 -874c-28,-211 -68,-440 -96,-651l-32 -220 -24 0c-31,58 -57,118 -87,178l-504 1020c-8,17 -15,31 -23,46 -14,28 -84,163 -88,180l-8 0c-4,-17 -350,-712 -351,-712 -59,-119 -116,-237 -175,-355 -56,-113 -118,-246 -176,-357l-36 0 -76 542c-5,38 -9,72 -15,110 -7,39 -9,70 -15,110 -36,249 -68,515 -106,764 -3,19 -4,33 -7,52 -4,21 -4,37 -8,57 -3,20 -4,34 -7,53 -3,16 -7,37 -7,57z"/>
            <path class="fil0" d="M12501 2505c-42,0 -120,-9 -159,-18 -53,-11 -88,-24 -133,-43 -38,-17 -80,-40 -113,-63l-182 -172c-78,-98 -139,-263 -139,-394 0,-144 4,-251 70,-382 71,-140 143,-222 274,-305l89 -47c46,-21 114,-44 168,-52 58,-9 107,-15 165,-9 42,5 58,0 125,16 126,30 186,65 283,130 73,49 156,145 199,222 116,213 126,460 32,681l-47 89c-7,12 -12,21 -18,30 -7,9 -12,15 -19,26 -36,54 -114,123 -169,159 -110,74 -208,106 -337,125 -22,3 -64,7 -89,7zm-53 -1661l90 0c130,6 264,35 361,83l109 60c123,82 199,165 278,283 66,99 100,211 123,327 13,63 7,109 12,156 10,93 -25,257 -63,353l-66 131 -70 99 -140 140c-7,6 -9,8 -16,13l-83 57c-48,29 -97,56 -151,74 -94,31 -184,49 -274,54l-95 0c-61,-3 -124,-12 -189,-26l-128 -41c-88,-38 -166,-87 -238,-147 -11,-9 -18,-19 -28,-28 -8,-6 -8,-5 -16,-12l-90 -102c-9,-11 -15,-19 -23,-30 -48,-73 -42,-63 -81,-140 -57,-115 -80,-248 -80,-401 0,-109 32,-269 80,-365 38,-74 24,-59 81,-145 27,-41 63,-86 99,-121 42,-42 73,-70 121,-103l68 -45c23,-13 45,-24 71,-37 14,-7 25,-10 39,-17 32,-15 89,-32 123,-42 52,-16 113,-25 176,-28z"/>
            <path class="fil0" d="M7013 2629l184 0 0 -1311 55 57c36,48 161,179 196,226l126 143c9,9 9,13 18,22 42,44 106,126 144,164l124 145c7,8 14,12 20,20l108 124c8,10 7,11 17,20 10,10 10,12 18,22 7,8 13,12 20,20 8,10 8,13 18,22 9,9 9,9 17,20 7,10 12,12 19,21l124 144c9,9 12,11 19,21l72 81c38,40 13,39 73,39l0 -1741 -177 0 0 1324c-12,-8 -57,-61 -73,-79l-919 -1059c-8,-9 -8,-12 -17,-22 -10,-10 -9,-10 -17,-20 -6,-8 -13,-12 -20,-20 -8,-10 -8,-12 -18,-22 -17,-18 -80,-102 -95,-102l-36 0 0 1741z"/>
            <path class="fil0" d="M9528 2461l-200 0 0 -670c41,0 140,-3 170,2l210 14c79,11 169,58 224,113 86,86 115,225 62,332 -7,13 -12,25 -20,37 -8,14 -13,21 -23,33l-90 79 -78 34c-17,5 -27,7 -45,11 -57,11 -141,15 -210,15zm-120 -843l-80 0 0 -557c134,0 360,-17 462,63 85,68 111,172 78,272 -9,26 -17,46 -30,67 -93,146 -252,155 -430,155zm-249 1011l514 0c81,0 168,-20 228,-48 8,-3 14,-5 23,-9 29,-14 53,-32 79,-49l36 -29c67,-61 120,-141 143,-230 32,-123 18,-276 -52,-381l-41 -55c-32,-37 -66,-61 -107,-86 -20,-13 -111,-57 -137,-59 6,-22 34,-16 77,-59 25,-25 48,-45 67,-74 84,-129 94,-305 22,-434 -7,-12 -14,-25 -21,-35 -41,-60 -83,-101 -152,-134 -84,-41 -187,-59 -286,-59l-393 0 0 1741z"/>
            <path class="fil0" d="M13692 1747c0,51 6,106 12,156 2,18 5,33 8,49 20,99 49,187 99,270l81 120c4,6 6,10 12,16 5,6 9,8 14,14 36,46 83,92 131,125l85 56c6,4 10,5 18,10 110,67 283,111 435,111 120,0 207,-5 320,-33 32,-8 69,-20 100,-32 80,-30 150,-71 219,-118 9,-6 11,-9 19,-14 8,-6 11,-10 19,-17 42,-33 85,-72 117,-115 6,-9 10,-12 16,-20l-140 -101c-20,14 -36,38 -53,55 -37,37 -80,73 -124,102 -24,16 -43,27 -71,41 -111,56 -235,87 -362,87 -17,0 -26,0 -42,-2 -16,-3 -30,0 -46,-2 -145,-17 -254,-56 -374,-136l-41 -31c-7,-6 -6,-5 -14,-10 -76,-65 -137,-152 -181,-240 -21,-41 -36,-92 -47,-137 -28,-110 -29,-260 -2,-369l32 -104c12,-34 31,-65 46,-95l37 -56c37,-55 82,-102 134,-142 25,-20 52,-41 81,-56 29,-15 62,-36 93,-48 137,-53 263,-74 413,-57 68,8 126,22 188,44 10,4 12,5 20,9 103,47 200,102 272,193 11,14 27,39 41,48l122 -94c9,-7 10,-9 18,-15 -17,-25 -45,-50 -63,-73 -21,-29 -44,-44 -68,-68l-118 -87c-132,-86 -320,-137 -477,-137 -103,0 -179,5 -277,25l-88 24c-131,42 -253,118 -350,215l-67 74c-55,70 -102,146 -135,230 -34,88 -56,180 -58,279 0,20 -4,30 -4,56z"/>
            <path class="fil0" d="M15746 2629l177 0 0 -810c22,15 35,36 47,49l333 353c10,11 12,16 22,26l356 382 236 0c-7,-11 -17,-18 -27,-29 -7,-7 -6,-8 -12,-15l-56 -57c-27,-33 -55,-57 -71,-78 -16,-21 -40,-38 -57,-58 -7,-8 -5,-8 -12,-16l-115 -119c-7,-8 -5,-8 -12,-16 -8,-10 -20,-20 -30,-30 -21,-21 -35,-39 -56,-60l-98 -103c-28,-36 -50,-47 -71,-76l-281 -301 75 -74c11,-10 17,-12 28,-24 9,-9 15,-15 24,-24 5,-4 7,-7 12,-12 8,-7 9,-5 16,-12l103 -98c47,-46 112,-100 158,-146 9,-9 15,-17 24,-25l185 -172c29,-22 29,-28 52,-48l104 -96c22,-22 40,-32 53,-52l-236 0 -322 304c-11,9 -14,10 -24,20l-173 165c-10,10 -12,10 -22,18 -8,7 -14,14 -22,22l-107 102c-6,5 -5,3 -11,8 -7,6 -6,6 -13,11l0 -650 -177 0 0 1741z"/>
            <polygon class="fil0" points="10547,2629 11390,2629 11390,2461 10720,2461 10720,888 10547,888 "/>
            <path class="fil0" d="M3567 2549c-21,-77 -253,-225 -253,-638 0,-82 14,-173 36,-245 17,-57 35,-104 62,-158l41 -72c17,-28 71,-105 93,-127 20,-21 29,-38 52,-56 8,-6 8,-5 16,-12 33,-32 71,-60 111,-83 269,-155 586,-191 869,-49 92,46 69,31 152,93 17,13 42,30 61,39 -4,-13 -11,-18 -23,-33l-69 -76 -83 -65c-126,-84 -285,-143 -443,-143 -162,0 -226,6 -381,57 -65,22 -152,66 -209,104l-79 58c-110,82 -217,246 -259,374 -27,79 -37,134 -47,218 -1,13 1,30 0,44 -1,18 -5,22 -4,44 0,20 4,20 4,40 2,126 27,219 72,334l28 63c6,11 11,17 16,28l42 71c35,52 140,177 195,190z"/>
            <path class="fil0" d="M6648 1639c0,124 -33,252 -78,363l-56 108c-47,77 -107,152 -174,212 -53,47 -138,101 -200,132 -80,40 -237,87 -355,87 -140,0 -191,-4 -324,-57l-106 -46c-19,-9 -97,-44 -111,-45 50,74 148,126 226,163 44,21 100,34 147,45 133,34 297,22 429,-4 104,-21 230,-74 317,-132l97 -72 135 -149c33,-51 58,-90 82,-147 85,-198 96,-435 37,-641 -29,-106 -83,-212 -149,-300 -24,-33 -42,-54 -71,-82 -41,-41 -75,-73 -125,-104 -15,-9 -33,-21 -50,-25 18,26 36,41 59,65 108,107 201,254 239,403 12,48 27,114 27,165 0,26 4,34 4,61z"/>
        </g>
        <g id="text">
            <polygon class="f" points="12513,3503 12587,3503 12587,3053 12513,3053 "/>
            <polygon class="fil0" points="5350,3503 5418,3503 5418,3053 5350,3053 "/>
            <path class="fil0" d="M6383 3184l0 211c0,13 4,17 17,17 27,0 17,-45 17,-74 0,-31 0,-61 0,-91 1,1 2,1 3,3l71 116 35 0 74 -125c0,30 0,61 0,91 0,26 -11,80 17,80 13,0 17,-4 17,-17l0 -211c0,-20 -11,-17 -34,-17 -11,20 -79,140 -97,154l-82 -141c-18,-23 -38,-16 -38,4z"/>
            <path class="fil0" d="M11257 3229l6 183c46,0 34,-12 34,-80 0,-32 0,-65 0,-97l123 157c24,33 48,23 48,3l0 -211c0,-21 -11,-17 -34,-17l0 177c-18,-13 -91,-111 -110,-136 -29,-39 -26,-41 -61,-41l-6 62z"/>
            <path class="fil0" d="M11891 3418c36,0 73,-16 97,-29l0 -114 -114 0c0,42 -7,34 80,34l0 57c-28,14 -66,22 -101,10 -87,-32 -66,-181 32,-181 36,0 58,17 86,23 8,-13 11,-11 11,-34 -47,-11 -108,-54 -181,13 -23,20 -42,46 -39,88 4,55 7,63 35,95 11,12 16,18 37,26 14,5 39,12 57,12z"/>
            <path class="fil0" d="M10504 3378l-69 0 0 -177c47,0 94,-8 124,19 32,29 37,109 -7,143 -15,11 -29,15 -48,15zm-103 -194l0 211c0,27 38,17 109,17 25,0 59,-14 77,-31 38,-33 45,-132 0,-184 -34,-39 -115,-30 -169,-30 -13,0 -17,4 -17,17z"/>
            <path class="fil0" d="M9545 3281l-80 0 0 -80 80 0c58,0 57,80 0,80zm-114 -97l0 211c0,24 34,24 34,0l0 -80 63 0c17,33 42,67 63,97 46,0 38,-8 12,-47 -13,-20 -24,-35 -35,-56 38,-3 55,-38 53,-71 -1,-18 -5,-35 -18,-50 -28,-32 -96,-21 -155,-21 -13,0 -17,4 -17,17z"/>
            <path class="fil0" d="M7542 3281l-80 0 0 -80 80 0c26,0 40,13 40,40 0,27 -14,40 -40,40zm-115 114c0,24 35,24 35,0l0 -80 62 0c11,19 53,97 75,97l17 0c-1,-28 -10,-35 -22,-52 -11,-17 -24,-31 -30,-51 19,-1 25,-6 35,-17 35,-40 18,-125 -46,-125l-126 0 0 228z"/>
            <path class="fil0" d="M5892 3235c0,42 24,55 63,63 72,14 46,-6 97,28l0 35c-37,24 -72,31 -114,11 -32,-14 -11,-19 -46,-11l0 28c96,51 194,28 194,-40 0,-36 0,-66 -65,-78 -55,-10 -51,5 -95,-24l0 -29c74,-49 83,-6 149,-6 6,-28 3,-31 -28,-41 -35,-11 -96,-18 -131,8 -16,13 -24,29 -24,56z"/>
            <path class="fil0" d="M7068 3315l6 0 -5 7 -1 -7zm0 0l-80 6c3,-15 12,-35 19,-50 10,-20 10,-35 27,-47 8,35 26,58 34,91zm-154 86c0,14 38,31 57,-52 39,19 105,-19 124,19 8,17 10,28 19,44 46,0 39,1 1,-87 -5,-13 -9,-18 -15,-31 -10,-23 -17,-43 -26,-65l-29 -62 -28 0c-12,22 -103,220 -103,234z"/>
            <path class="fil0" d="M10042 3315l5 0 -5 7 0 -7zm0 0l-80 6c4,-21 12,-28 20,-48 7,-18 20,-39 20,-55l5 0c0,28 32,64 35,97zm-155 86c0,8 8,11 18,11 41,0 9,-62 73,-62l24 2c37,6 20,-6 62,3 5,18 20,57 40,57 37,0 -7,-63 -29,-119 -8,-19 -19,-44 -28,-64 -10,-22 -17,-41 -28,-62l-29 0c-9,16 -18,34 -26,53 -10,23 -15,41 -25,61 -6,12 -52,112 -52,120z"/>
            <path class="fil0" d="M7890 3184c0,25 24,17 80,17l0 194c0,20 11,17 34,17 0,-23 6,-31 1,-59l-1 -152c59,0 86,8 86,-17 0,-13 -4,-17 -18,-17l-165 0c-13,0 -17,4 -17,17z"/>
            <path class="fil0" d="M8946 3184c0,25 24,17 80,17l0 194c0,20 11,17 34,17l0 -211c59,0 85,8 85,-17 0,-13 -4,-17 -17,-17l-182 0 0 17z"/>
            <path class="fil0" d="M8472 3258c0,77 108,77 108,0 0,-65 -108,-65 -108,0z"/>
            <path class="fil0" d="M10915 3184l0 211c0,24 34,24 34,0l0 -211c0,-24 -34,-24 -34,0z"/>
        </g>
    </g>
</svg>